,Country,City,Fnat,Mnat,Ynat,Mjob,Fl,Ml,Yl
149,Россия,Севастопольский край,арм,груз,арм,продав-консультант,арм,рус,рус
153,Россия,Москва,арм,рус,арм,домохозяй,арм,рус,рус
237,Армения,Ереван,арм,рус,арм,продав,арм,рус,рус
275,Россия,не узано,арм,рус,арм,воспитатель,арм,рус,рус
312,Россия,Москва,белорус,рус,белорус,менеджер,белорус,рус,рус
453,Россия,не узано,лезги,рус,лезги,бухгалтер,лезги,рус,рус
508,Россия,не узано,не узано,кирг,не узано,не узано,не узано,кирг,кирг
544,Россия,Москва,осетин,рус,осетин,военный,осетин,рус,рус
953,Молдова,Бельцы,рус,молдаван,рус,не работает,рус,молдавский,молдавский
1274,Украина,не узано,рус,укр,рус,доставщик,рус,укр,укр
1470,Россия,Московся область,татар,рус,татар,врач,татар,рус,рус
1487,Россия,Москва,татарин,рус,татарин,домохозяй,татар/рус,рус,рус
1494,Туркменистан,Ашхабад,турк,рус,турк,музынт,турк,рус,рус
