"","Country","City","Fnat","Mnat","Ynat","Mjob","Fl","Ml","Yl"
"2","Россия","Махачла","авар","дарги","дарги","продав","авар","дарги","авар"
"3","Россия","Дагестан","агул","табасаран","агул-табасаран","в торговом центре","агул","табасар","рус"
"5","Россия","не узано","азб-тадж","узб-татар","узб-татар","не узано","узб-тадж","узб-татар","узб"
"35","Украина","Александрия ","азерб","укр","укр","не узано","азерб","укр","укр"
"50","Россия","не узано","азерб","рус","не узано","не работает","азерб","рус","рус"
"59","Россия","Москва","азерб","рус","рус","помощник директора фирмы","азерб","рус","рус"
"60","Россия","Москва","азерб","рус","не узано","не узано","азерб","рус","рус"
"66","Россия","Москва","азерб","рус","рус","повар","азерб","рус","рус"
"79","Россия","Москва","азерб","рус","рус","директор магазина","азерб","рус","рус"
"110","Россия","Москва","америк","рус","рус","флорист","англ","рус","рус"
"112","Беларусь","Витебск","араб","белорус","белорус","не узано","араб","белорус","белорус"
"115","Россия","Москва","арм","рус","арм-рус","домохозяй","арм","рус","рус"
"130","Россия","Котельники","арм","рус","рус","домохозяй","арм","рус","рус"
"138","Россия","Москва","арм","рус","рус","домохозяй","арм","рус","рус"
"144","Россия","Котельники","арм","рус","рус","не узано","арм","рус","рус"
"151","Россия","Котельники","арм","рус","рус","продав","арм","рус","рус"
"165","Россия","Москва","арм","рус","рус","домохозяй","арм","рус","рус"
"173","Россия","Симферопль","арм","крымся татар","крымся татар","продав","арм","татарский","татарский"
"202","Россия","Котельники","арм","рус","рус","не узано","арм","рус","рус"
"222","Россия","Барнаул","арм","рус","метис","домохозяй","арм","рус","рус"
"230","Россия","Москва","арм","рус","метис","администратор ","арм","рус","рус"
"233","Россия","Москва","арм","рус","рус","домохозяй","арм","рус","рус"
"234","Россия","Москва","арм","рус","рус-арм","главный бухгалтер","арм","рус","арм и рус"
"240","Узбекистан","Ташкент","арм","крымся татар","крымся татар","терапевт","арм","узб","рус"
"247","Россия","Москва","арм","рус","рус","воспитатель","арм","рус","рус"
"258","Россия","Котельники","арм","груз","арм-груз","домохозяй","арм","груз","арм-груз"
"272","Россия","Москва","арм","рус","рус","начальник отделения почты России","арм","рус","рус"
"307","Таджикистан","Душанбе","афганистан","тадж","не узано","не узано","афган","тадж","тадж"
"312","Россия","Котельники","белорус","рус","рус","ссир","бел","рус","рус"
"316","Россия","Москва","белорус","москвич","москвич","домохозяй","белорус","рус ","рус"
"317","Россия","не узано","белорус","рус","рус","не узано","белорус","не узано","рус"
"321","Россия","Люберцы","венгр","рус","рус","домохозяй","венг","рус","рус"
"322","Россия","Котельники","венгр","рус","рус","домохозяй","венгер","рус","рус"
"341","Россия","Люберцы","грек","рус","не узано","главный оператор","не знаю","рус","рус"
"346","Россия","Котельники","груз","рус","рус","регистратор в поликлинике","груз","рус","рус"
"351","Россия","Москва","груз","рус","рус","не работает","груз","рус","рус"
"366","Россия","Махачла","евр","авар","еврей","не узано","иврит","авар","иврит-авар"
"392","Россия","Москва","инди","рус","рус","воспитатель","англ","рус","рус"
"393","Россия","Москва","испан","рус","рус","старший продав","рус и испан","рус","рус и испан"
"394","Россия","Москва","итальян-америк","рус","итальян","не узано","итальян","рус","рус"
"402","Россия","Ростов-на-Дону","бард","рус","рус","занимается бизнесом ","бард","рус","рус"
"408","захстан","Шымкент","зах","рус","рус","врач","з","рус","рус"
"413","Россия","Котельники","кипр","рус","рус","домохозяй","тур","рус","рус"
"426","Киргизия","Ош","кирг","рус","рус","ссир","кирг","рус","рус"
"442","Россия","Люберцы","куби","рус","рус","бухгалтер","испан","рус","рус"
"456","Россия","Котельники","лизги","рус","рус","бухгалтер","даг","рус","рус"
"457","Россия","Котельники","молд","рус","рус","бухгалтер","молд","рус","рус"
"460","Россия","Котельники","молдав","рус","рус","руководитель отдела контента","молдав","рус","рус"
"464","Россия","не узано","молдаван","рус","рус","не узано","молдаван","рус","рус"
"468","Россия","Котельники","молдаван","рус","рус","ссир","молдавский","рус","рус"
"471","Россия","Пенза","мордвин","рус","рус","ссир в банке","мордовский","рус","рус"
"472","Россия","Котельники","мордвин","рус","рус","не узано","мордовский","рус","рус"
"481","Россия","Люберцы","не узано","христиан","христиан","не  узано","не узано","рус","рус"
"484","Россия","Котельники","не узано","рус","рус","не узано","не узано","рус","рус"
"486","Россия","Курек","не узано","рус","рус","не узано","не узано","рус","рус"
"490","Россия","Москва","не узано","укр","рус","продав","не узано","укр","укр"
"494","Россия","Перьмь","не узано","рус","рус","АО никель","не узано","рус","рус"
"495","Украина","Киев","не узано","рус","рус ","полицейский","не узано","рус ","рус"
"496","Россия","Котельники","не узано","рус","рус","медсестра","не узано","рус ","рус"
"497","Россия","Москва","не узано","укр","рус","перь","не узано","укр","рус"
"498","Россия","Москва","не узано","рус-укр-нем","рус","не работает","не узано","рус","рус"
"499","Россия","Люберцы","не узано","рус","рус","распаковщик лерств","не узано","рус","рус"
"500","Россия","Москва","не узано","рус","рус","свой бизнес","не узано","рус","рус"
"501","Россия","Москва","не узано","рус","рус","продавщица","не узано","рус","рус"
"507","Россия","Москва","не узано","рус","рус","не узано","не узано","рус","рус"
"508","Россия","Москва","не узано","рус","рус","полицейский","не узано","рус","рус"
"510","Россия","Люберцы","не узано","чуваш-рус","чуваш-рус","медработник","не узано","рус","рус"
"511","Россия","Люберцы","не узано","рус","рус","домохозяй","не узано","рус","рус"
"512","Россия","Москва","не узано","рус","рус","администратор","не узано","рус","рус"
"516","Россия","Люберцы","не узано","рус","рус","менеджер","не узано","рус","рус"
"517","Россия","Москва","не узано","христиан","христиан","продав","не узано","рус","рус"
"518","Россия","Москва","не узано","рус","рус","ветеринар","не узано","рус","рус"
"519","Россия","Москва","не узано","рус-евр","евр","дизайнер","не узано","рус","рус"
"520","Россия","не узано","не узано","евр","евр","мастер маникюра","не узано","евр","евр"
"521","Россия","Москва","не узано","рус","рус","продав бижутерии","не узано","рус","рус"
"522","Россия","Люберцы","не узано","рус","рус","сотрудник Реала","не узано","рус","рус"
"523","Россия","Сураж","не узано","рус","рус","продав цветов","не узано","рус","рус"
"525","Россия","Котельники","не узано","укр","рус","уборщица","не узано","укр","рус"
"532","Россия","Москва","не узано","рус","рус","парикмахер","не узано","рус","рус"
"533","Россия","Москва","не узано","рус","рус","управляющий салоном красоты","не узано","рус","рус"
"536","Россия","Москва","нем","укр","рус","владел оконной фирмы","нем","укр","рус"
"537","Россия","Москва","нем","рус","рус","переводчик","нем ","рус","рус"
"538","Россия","Саратов","нет","рус","рус","заведающая операцианистами","нет","рус","рус"
"539","не узано","не узано","нога","ногай","ногай","бухгалтер","ногайский","не узано","не узано"
"541","Россия","Котельники","осетин","рус","рус","воспитатель","осетин","рус","рус"
"548","Россия","Москва","пер","азерб и турчан","азерб-турк-перс","не работает","туркий и  азерб","туркий и азер","рус"
"551","Россия","не узано","пушт","афган","афган","домохозяй","пушту","фарси","фарси"
"609","Киргизия","Бишкек","рус","кирг","русне узанокирг","ссир","рус","кирг","кирг"
"682","Россия","Москва","рус","чуваш/рус","чуваш/рус","домохозяй","рус","чуваш","чуваш"
"719","Россия","Котельники","рус","татар","татар","бухгалтер","рус","татар","рус"
"758","Россия","Москва","рус","абхаз","рус-абх","ссир","рус","абх","рус-абх"
"759","Россия","Котельники","рус","укр","укр-рус","в театральном буфете","рус","укр","рус"
"939","Украина","Рожище","рус","укр","укр","работник магазина","рус","укр","укр"
"940","Россия","Люберцы","рус","укр","не узано","домохозяй","рус","рус и укр","рус"
"945","Россия","Москва","рус","укр","кирг","воспитатель","рус","укр","рус"
"964","Россия","Москва","рус","татар","рус-татар","консультант в детском магазине","рус","татарский","рус"
"986","Россия","Москва","рус","татар","татар","домохозяй","рус","татарский","рус"
"1110","Молдова","не узано","рус","молдаван","молдаван","строитель","рус","молдавский","молдавский"
"1125","Россия","Москва","рус","укр","рус-укр","не работает","рус","укр","рус"
"1126","Россия","Москва","рус","цыган","цыган","главный менеджер по обслуживанию","рус","цыган и рус","цыган и рус"
"1132","Россия","Москва","рус","татар","татар","директор магазина","рус","рус и татар","не узано"
"1219","Россия","не узано","рус","укр","укр","повар","укр","рус","укр"
"1295","Молдова","Григориополь","рус","молдав","молдав","официант","рус","молдав","молдав"
"1390","Украина","Док","рус ","укр","укр","бухгалтер","рус","рус ","рус"
"1393","Россия","Люберцы","рус-белорус","рус","рус","не работает","рус","рус ","рус"
"1397","Россия","Москва","сири","рус","сирий","не работает","араб","рус","рус"
"1399","Таджикистан","Душанбе","тадж","узб","рус","менеджер","тадж","узб","рус"
"1403","Узбекистан","не узано","тадж","узб","узб","директор ","тадж","узб","узб"
"1406","Таджикистан","Душанбе","тадж","узб","узб","директор в магазине одежды","тадж","узб","узб"
"1410","Россия","Москва","тадж","молд","молд","домохозяй","тадж","молд","рус"
"1419","Россия","Москва","тадж","рус","рус","домохозяй","тадж","рус","рус"
"1423","Россия","Москва","тадж","рус","рус","воспитатель","тадж","рус","рус"
"1436","Таджикистан","Душанбе","тадж","арм","арм","домохозяй","тадж","арм","арм"
"1445","Россия","Электросталь","тадж","узб","узб","домохозяй","тадж","узб","тадж"
"1456","Россия","Котельники","талыш-азерб","арм","рус","воспитатель","азерб","рус","рус"
"1467","Россия","Москва","татар","укр","рус","домохозяй","татарский","укр","рус"
"1469","Россия","Москва","татар","рус","рус","директор","татарский","рус","рус"
"1481","Россия","Москва","татар","рус","рус","не узано","татар-рус","рус","рус"
"1492","Россия","Москва","тур","укр","рус","не работает","тур","рус","рус"
"1493","Россия","Серебряные пруды","тур","рус","рус","соц. работник","тур","рус","рус"
"1494","Россия","Москва","тур","рус","рус","не узано","тур","рус","рус"
"1496","Туркменистан","Ашхабад","турк","рус","рус","бухгалтер","турк","рус","турк"
"1497","Россия","Москва","туркмен","рус","рус","домохозяй","туркм","туркм-рус","рус"
"1509","Россия","Котельники","узб","рус","рус","домохозяй","узб","рус","рус"
"1525","Россия","Москва","узб","татар","метис","домохозяй","узб","татар","рус"
"1544","Россия","Москва","узб","рус","рус","ссир","узб","рус","рус"
"1546","Россия","Москва","укр","рус","рус","фармацевт","укр","рус","рус"
"1553","Россия","Котельники","укр","рус","рус","ветеринар","укр","рус","рус"
"1557","Россия","Москва","укр","рус","рус","домохозяй","укр","рус","рус"
"1558","Россия","Люберцы","укр","рус","рус","домохозяй","укр","рус","укр"
"1561","Россия","Рошаль","укр","рус","рус","домохозяй","укр","рус","рус"
"1563","Украина","Одесса","укр","азерб","рус","домохозяй","укр","рус","рус"
"1564","Россия","Отрадное","укр","рус","рус","директор","укр","рус","рус"
"1570","Россия","Котельники","укр","рус","рус","работает в фе","укр","рус","рус"
"1573","Россия","Воркута","укр","рус","рус","не узано","укр","рус","рус"
"1577","Россия","Люберцы","укр","рус","рус","уборщица","укр","рус","рус"
"1580","Россия","Люберцы","укр","чуваш-рус","рус","не узано","укр","чуваш и рус","рус"
"1581","Россия","Москва","укр","рус","рус","индивидуальный предприниматель","укр","рус","рус"
"1583","Россия","не узано","укр","рус","рус","бухгалтер","укр","рус","рус"
"1584","Россия","Ярославль","укр","рус","рус","преподаватель","укр","рус","рус"
"1586","Россия","Люберцы","укр","рус","рус","медсестра","укр","рус","рус"
"1590","Россия","Москва","укр","рус","рус","домохозяй","суржик","рус","рус"
"1593","Россия","Котельники","укр","рус","рус","домохозяй","укр","рус","рус"
"1594","Польша","Краков","укр","татар","укр-поляк","медсестра","рус","татар","рус"
"1602","Молдова","Бельцы","укр","молдав","молдав","продав","рус","молдав","молдав"
"1603","Россия","Москва","укр","рус","рус","домохозяй","укр","рус","рус"
"1604","Россия","Люберцы","укр","мордвин","мордвин","домохозяй","укр","мордовский","рус"
"1605","Россия","Москва","укр","рус","рус","астропсихолог","укр","рус","рус"
"1606","Россия","Москва","укр","рус","рус","домохозяй","рус-укр","рус","рус"
"1610","Россия","Москва","франц","рус","не узано","архитектор","франц","рус","франц-рус"
"1611","Россия","не узано","цыган","рус","рус","домохозяй","не узано","рус","рус"
"1612","Россия","не узано","черкес-молдав","молдав-рус","черкес","мастер маникюра","черкес","молдав","молдав"
"1624","Россия","Котельники","чуваш","рус","рус","зам. директор магазина Пятёроч","чуваш","рус","рус"
"1625","Россия","Котельники","чуваш","рус","рус","зам. директор магазина","чуваш","рус","рус"
