"","Country","City","Fnat","Mnat","Ynat","Mjob","Fl","Ml","Yl"
"150","Россия","Севастопольский край","арм","груз","арм","продав-консультант","арм","рус","рус"
"154","Россия","Москва","арм","рус","арм","домохозяй","арм","рус","рус"
"238","Армения","Ереван","арм","рус","арм","продав","арм","рус","рус"
"276","Россия","не узано","арм","рус","арм","воспитатель","арм","рус","рус"
"313","Россия","Москва","белорус","рус","белорус","менеджер","белорус","рус","рус"
"454","Россия","не узано","лезги","рус","лезги","бухгалтер","лезги","рус","рус"
"509","Россия","не узано","не узано","кирг","не узано","не узано","не узано","кирг","кирг"
"545","Россия","Москва","осетин","рус","осетин","военный","осетин","рус","рус"
"954","Молдова","Бельцы","рус","молдаван","рус","не работает","рус","молдавский","молдавский"
"1275","Украина","не узано","рус","укр","рус","доставщик","рус","укр","укр"
"1471","Россия","Московся область","татар","рус","татар","врач","татар","рус","рус"
"1488","Россия","Москва","татарин","рус","татарин","домохозяй","татар/рус","рус","рус"
"1495","Туркменистан","Ашхабад","турк","рус","турк","музынт","турк","рус","рус"
