id,NofL,Score
1,1,36
2,1,27
3,1,29
4,1,32
5,1,98
6,2,76
7,2,89
8,2,77
9,2,89
10,2,87
11,2,90
12,2,98
13,2,99
14,2,79
15,2,73
16,2,75
17,2,76
18,2,77
19,2,73
20,2,75
21,1,19
22,1,20
23,3,89
24,1,24
25,2,59
26,1,28
27,1,34
28,2,59
29,2,78
30,1,23
31,2,88
32,2,88
33,2,87
34,2,69
35,3,89
36,3,90
37,3,100
38,4,98
39,2,100
40,2,58
41,2,60
42,2,59
43,3,93
44,3,95
45,3,96
46,3,97
47,3,91
48,3,87
49,3,80
50,2,42
51,2,50
52,2,70
53,2,67
54,2,60
55,2,52
56,2,54
57,2,56
58,2,58
59,3,85
60,3,88
61,3,89
62,4,89
63,2,58
64,2,57
65,2,79
66,2,80
67,2,90
68,2,100
69,2,98
70,2,80
71,2,68
72,2,67
73,2,65
74,2,66
75,2,66
76,2,64
77,1,26
78,2,64
79,2,63
80,2,62
81,2,60
82,2,69
83,2,76
84,2,74
85,2,78
86,2,78
87,2,76
88,1,12
89,2,74
90,2,73
91,2,72
92,2,76
93,2,80
94,2,89
95,2,78
96,2,75
97,2,76
98,1,10
99,1,12
100,1,15
101,1,36
102,1,27
103,1,29
104,1,32
105,1,20
106,2,76
107,2,70
108,2,77
109,2,70
110,2,70
111,2,68
112,2,67
113,2,80
114,2,79
115,2,73
116,2,75
117,2,76
118,2,77
119,2,73
120,2,75
121,1,19
122,1,20
123,3,90
124,1,24
125,2,59
126,1,28
127,1,34
128,2,65
129,2,78
130,1,23
131,2,70
132,2,80
133,2,78
134,2,69
135,3,89
136,3,90
137,3,98
138,4,98
139,2,60
140,2,58
141,2,60
142,2,59
143,3,93
144,3,95
145,3,96
146,3,97
147,3,91
148,3,95
149,3,90
150,2,70
151,2,75
152,2,70
153,2,67
154,2,60
155,2,60
156,2,64
157,2,66
158,2,68
159,3,85
160,3,88
161,3,89
162,4,89
163,2,76
164,2,80
165,2,79
166,2,80
167,2,70
168,2,60
169,2,60
170,2,60
171,2,68
172,2,67
173,2,65
174,2,66
175,2,66
176,2,64
177,1,26
178,2,64
179,2,63
180,2,62
181,2,60
182,2,69
183,2,76
184,2,74
185,2,78
186,2,78
187,2,76
188,1,12
189,2,74
190,2,73
191,2,72
192,2,76
193,2,80
194,2,67
195,2,78
196,2,75
197,2,76
198,1,10
199,1,12
200,1,15
